NEW COA PROJECT/calculator_tb.vcd
$date
	Thu Apr 16 21:14:52 2026
$end
$version
	Icarus Verilog
$end
$timescale
	1ps
$end
$scope module calculator_tb $end
$var wire 7 ! seg [6:0] $end
$var wire 16 " led [15:0] $end
$var wire 1 # dp $end
$var wire 8 $ an [7:0] $end
$var parameter 32 % CLK_PERIOD $end
$var reg 1 & clk $end
$var reg 1 ' rst_in $end
$var reg 16 ( sw [15:0] $end
$var integer 32 ) fail_count [31:0] $end
$var integer 32 * pass_count [31:0] $end
$scope module uut $end
$var wire 1 & clk $end
$var wire 1 ' rst_in $end
$var wire 16 + sw [15:0] $end
$var wire 1 , valid $end
$var wire 7 - seg [6:0] $end
$var wire 1 . rst $end
$var wire 8 / result [7:0] $end
$var wire 1 0 refresh_tick $end
$var wire 1 1 overflow $end
$var wire 2 2 op_sel [1:0] $end
$var wire 1 3 neg_flag $end
$var wire 16 4 led [15:0] $end
$var wire 1 5 is_division $end
$var wire 4 6 dp_sel [3:0] $end
$var wire 1 # dp $end
$var wire 1 7 div_by_zero $end
$var wire 4 8 digit3 [3:0] $end
$var wire 4 9 digit2 [3:0] $end
$var wire 4 : digit1 [3:0] $end
$var wire 4 ; digit0 [3:0] $end
$var wire 4 < dec_digit [3:0] $end
$var wire 4 = b [3:0] $end
$var wire 8 > an [7:0] $end
$var wire 4 ? a [3:0] $end
$scope module u_calc_core $end
$var wire 1 & clk $end
$var wire 1 . rst $end
$var wire 2 @ op_sel [1:0] $end
$var wire 4 A b [3:0] $end
$var wire 4 B a [3:0] $end
$var reg 4 C dec_digit [3:0] $end
$var reg 1 7 div_by_zero $end
$var reg 1 5 is_division $end
$var reg 1 3 neg_flag $end
$var reg 1 1 overflow $end
$var reg 8 D result [7:0] $end
$var reg 1 , valid $end
$var reg 9 E wide [8:0] $end
$upscope $end
$scope module u_input_mapper $end
$var wire 16 F sw [15:0] $end
$var wire 2 G op_sel [1:0] $end
$var wire 4 H b [3:0] $end
$var wire 4 I a [3:0] $end
$upscope $end
$scope module u_led_driver $end
$var wire 1 7 div_by_zero $end
$var wire 1 3 neg_flag $end
$var wire 1 1 overflow $end
$var wire 8 J result [7:0] $end
$var wire 1 , valid $end
$var wire 1 . rst $end
$var reg 16 K led [15:0] $end
$upscope $end
$scope module u_refresh_div $end
$var wire 1 & clk $end
$var wire 1 . rst $end
$var parameter 32 L DIVISOR $end
$var reg 15 M counter [14:0] $end
$var reg 1 0 tick $end
$upscope $end
$scope module u_reset_sync $end
$var wire 1 & clk $end
$var wire 1 ' rst_in $end
$var reg 1 . rst $end
$var reg 1 N rst_meta $end
$upscope $end
$scope module u_result_formatter $end
$var wire 4 O dec_digit [3:0] $end
$var wire 1 7 div_by_zero $end
$var wire 1 5 is_division $end
$var wire 1 3 neg_flag $end
$var wire 1 1 overflow $end
$var wire 8 P result [7:0] $end
$var parameter 4 Q BLANK $end
$var parameter 4 R E_CHR $end
$var parameter 4 S MINUS $end
$var parameter 4 T R_CHR $end
$var reg 4 U d_h [3:0] $end
$var reg 4 V d_t [3:0] $end
$var reg 4 W d_u [3:0] $end
$var reg 4 X digit0 [3:0] $end
$var reg 4 Y digit1 [3:0] $end
$var reg 4 Z digit2 [3:0] $end
$var reg 4 [ digit3 [3:0] $end
$var reg 4 \ dp_sel [3:0] $end
$var reg 8 ] magnitude [7:0] $end
$upscope $end
$scope module u_sevenseg_mux $end
$var wire 1 & clk $end
$var wire 4 ^ digit0 [3:0] $end
$var wire 4 _ digit1 [3:0] $end
$var wire 4 ` digit2 [3:0] $end
$var wire 4 a digit3 [3:0] $end
$var wire 4 b dp_sel [3:0] $end
$var wire 1 0 refresh_tick $end
$var wire 1 . rst $end
$var reg 8 c an [7:0] $end
$var reg 4 d cur_code [3:0] $end
$var reg 1 e cur_dp $end
$var reg 1 # dp $end
$var reg 7 f seg [6:0] $end
$var reg 2 g sel [1:0] $end
$upscope $end
$upscope $end
$scope task apply $end
$var reg 4 h a_in [3:0] $end
$var reg 4 i b_in [3:0] $end
$var reg 2 j op_in [1:0] $end
$upscope $end
$scope task check $end
$var reg 4 k a_in [3:0] $end
$var reg 4 l b_in [3:0] $end
$var reg 1 m exp_div0 $end
$var reg 1 n exp_neg $end
$var reg 1 o exp_ovf $end
$var reg 8 p exp_result [7:0] $end
$var reg 64 q label [63:0] $end
$var reg 2 r op_in [1:0] $end
$upscope $end
$upscope $end
$enddefinitions $end
$comment Show the parameter values. $end
$dumpall
b1101 T
b1011 S
b1100 R
b1010 Q
b110000110101000 L
b1010 %
$end
#0
$dumpvars
bx r
bx q
bx p
xo
xn
xm
bx l
bx k
bx j
bx i
bx h
b0 g
b1000000 f
0e
b0 d
b11111110 c
b0 b
b1010 a
b1010 `
b1010 _
b0 ^
b0 ]
b0 \
b1010 [
b1010 Z
b1010 Y
b0 X
b0 W
b0 V
b0 U
b0 P
b0 O
1N
b0 M
b0 K
b0 J
b0 I
b0 H
b0 G
b0 F
bx E
b0 D
b0 C
b0 B
b0 A
b0 @
b0 ?
b11111110 >
b0 =
b0 <
b0 ;
b1010 :
b1010 9
b1010 8
07
b0 6
05
b0 4
03
b0 2
01
00
b0 /
1.
b1000000 -
0,
b0 +
b0 *
b0 )
b0 (
1'
0&
b11111110 $
1#
b0 "
b1000000 !
$end
#5000
1&
#10000
0&
#15000
1&
#20000
0&
#25000
1&
#30000
0&
#35000
1&
#40000
0&
#45000
1&
#50000
0&
#55000
0N
0'
1&
#60000
0&
#65000
0.
1&
#66000
b0 j
b0 i
b0 h
b100000101000100010001000010000000110000001010110011000000100000 q
0o
0m
0n
b0 p
b0 r
b0 l
b0 k
#70000
0&
#75000
1,
b1 M
b0 E
1&
#80000
0&
#85000
b10 M
1&
#90000
0&
#95000
b11 M
1&
#100000
0&
#105000
b100 M
1&
#106000
b101 ?
b101 B
b101 I
b11 =
b11 A
b11 H
b110101 (
b110101 +
b110101 F
b11 i
b101 h
b100000101000100010001000010000000110101001010110011001100100000 q
b1000 p
b11 l
b101 k
b1 *
#110000
0&
#115000
b0 !
b0 -
b0 f
b1000 d
b11111110 $
b11111110 >
b11111110 c
b1000 "
b1000 4
b1000 K
b1000 W
b1000 ;
b1000 X
b1000 ^
b1000 /
b1000 D
b1000 J
b1000 P
b101 M
b1000 E
1&
#120000
0&
#125000
b110 M
1&
#130000
0&
#135000
b111 M
1&
#140000
0&
#145000
b1000 M
1&
#146000
b1001 ?
b1001 B
b1001 I
b111 =
b111 A
b111 H
b1111001 (
b1111001 +
b1111001 F
b111 i
b1001 h
b100000101000100010001000010000000111001001010110011011100100000 q
b10000 p
b111 l
b1001 k
b10 *
#150000
0&
#155000
b10 !
b10 -
b10 f
b110 d
b11111110 $
b11111110 >
b11111110 c
b10000 "
b10000 4
b10000 K
b1 :
b1 Y
b1 _
b1 V
b110 W
b110 ;
b110 X
b110 ^
b10000 /
b10000 D
b10000 J
b10000 P
b1001 M
b10000 E
1&
#160000
0&
#165000
b1010 M
1&
#170000
0&
#175000
b1011 M
1&
#180000
0&
#185000
b1100 M
1&
#186000
b1111 ?
b1111 B
b1111 I
b1111 =
b1111 A
b1111 H
b11111111 (
b11111111 +
b11111111 F
b1111 i
b1111 h
b100010001000100001000000011000100110101001010110011000100110101 q
b11110 p
b1111 l
b1111 k
b11 *
#190000
0&
#195000
b1000000 !
b1000000 -
b1000000 f
b0 d
b11111110 $
b11111110 >
b11111110 c
b11110 "
b11110 4
b11110 K
b0 W
b11 V
b0 ;
b0 X
b0 ^
b11 :
b11 Y
b11 _
b11110 /
b11110 D
b11110 J
b11110 P
b1101 M
b11110 E
1&
#200000
0&
#205000
b1110 M
1&
#210000
0&
#215000
b1111 M
1&
#220000
0&
#225000
b10000 M
1&
#226000
b1 ?
b1 B
b1 I
b0 =
b0 A
b0 H
b1 (
b1 +
b1 F
b0 i
b1 h
b100000101000100010001000010000000110001001010110011000000100000 q
b1 p
b0 l
b1 k
b100 *
#230000
0&
#235000
b1111001 !
b1111001 -
b1111001 f
b1 d
b11111110 $
b11111110 >
b11111110 c
b1 "
b1 4
b1 K
b1 W
b0 V
b1 ;
b1 X
b1 ^
b1010 :
b1010 Y
b1010 _
b1 /
b1 D
b1 J
b1 P
b10001 M
b1 E
1&
#240000
0&
#245000
b10010 M
1&
#250000
0&
#255000
b10011 M
1&
#260000
0&
#265000
b10100 M
1&
#266000
b111 ?
b111 B
b111 I
b11 =
b11 A
b11 H
b1 2
b1 @
b1 G
b100110111 (
b100110111 +
b100110111 F
b1 j
b11 i
b111 h
b101001101010101010000100010000000110111001011010011001100100000 q
b100 p
b1 r
b11 l
b111 k
b101 *
#270000
0&
#275000
b11001 !
b11001 -
b11001 f
b100 d
b11111110 $
b11111110 >
b11111110 c
b100 "
b100 4
b100 K
b100 W
b100 ;
b100 X
b100 ^
b100 /
b100 D
b100 J
b100 P
b10101 M
1&
#280000
0&
#285000
b10110 M
1&
#290000
0&
#295000
b10111 M
1&
#300000
0&
#305000
b11000 M
1&
#306000
b1111 ?
b1111 B
b1111 I
b1111 =
b1111 A
b1111 H
b111111111 (
b111111111 +
b111111111 F
b1111 i
b1111 h
b101010101000010001000000011000100110101001011010011000100110101 q
b0 p
b1111 l
b1111 k
b110 *
#310000
0&
#315000
b1000000 !
b1000000 -
b1000000 f
b0 d
b11111110 $
b11111110 >
b11111110 c
b0 "
b0 4
b0 K
b0 W
b0 ;
b0 X
b0 ^
b0 /
b0 D
b0 J
b0 P
b11001 M
1&
#320000
0&
#325000
b11010 M
1&
#330000
0&
#335000
b11011 M
1&
#340000
0&
#345000
b11100 M
1&
#346000
b101 ?
b101 B
b101 I
b0 =
b0 A
b0 H
b100000101 (
b100000101 +
b100000101 F
b0 i
b101 h
b101001101010101010000100010000000110101001011010011000000100000 q
b101 p
b0 l
b101 k
b111 *
#350000
0&
#355000
b10010 !
b10010 -
b10010 f
b101 d
b11111110 $
b11111110 >
b11111110 c
b101 "
b101 4
b101 K
b101 W
b101 ;
b101 X
b101 ^
b101 /
b101 D
b101 J
b101 P
b11101 M
1&
#360000
0&
#365000
b11110 M
1&
#370000
0&
#375000
b11111 M
1&
#380000
0&
#385000
b100000 M
1&
#386000
b0 ?
b0 B
b0 I
b1 =
b1 A
b1 H
b100010000 (
b100010000 +
b100010000 F
b1 i
b0 h
b101001101010101010000100010000000110000001011010011000100100000 q
1n
b11111111 p
b1 l
b0 k
b1000 *
#390000
0&
#395000
b1111001 !
b1111001 -
b1111001 f
b1 d
b11111110 $
b11111110 >
b11111110 c
b10011111111 "
b10011111111 4
b10011111111 K
b1011 :
b1011 Y
b1011 _
b1 ]
b1 W
b1 ;
b1 X
b1 ^
13
b11111111 /
b11111111 D
b11111111 J
b11111111 P
b100001 M
1&
#400000
0&
#405000
b11111110 $
b11111110 >
b11111110 c
b1 W
b1 ]
b1 ;
b1 X
b1 ^
b1011 :
b1011 Y
b1011 _
b100010 M
13
1&
#410000
0&
#415000
b11111110 $
b11111110 >
b11111110 c
b1 W
b1 ]
b1 ;
b1 X
b1 ^
b1011 :
b1011 Y
b1011 _
13
b100011 M
1&
#420000
0&
#425000
b11111110 $
b11111110 >
b11111110 c
b1 W
b1 ]
b1 ;
b1 X
b1 ^
b1011 :
b1011 Y
b1011 _
b100100 M
13
1&
#426000
b11 ?
b11 B
b11 I
b111 =
b111 A
b111 H
b101110011 (
b101110011 +
b101110011 F
b111 i
b11 h
b101001101010101010000100010000000110011001011010011011100100000 q
b11111100 p
b111 l
b11 k
b1001 *
#430000
0&
#435000
b11001 !
b11001 -
b11001 f
b100 d
b11111110 $
b11111110 >
b11111110 c
b10011111100 "
b10011111100 4
b10011111100 K
b100 W
b100 ]
b100 ;
b100 X
b100 ^
b1011 :
b1011 Y
b1011 _
b11111100 /
b11111100 D
b11111100 J
b11111100 P
13
b100101 M
1&
#440000
0&
#445000
b11111110 $
b11111110 >
b11111110 c
b100 W
b100 ]
b100 ;
b100 X
b100 ^
b1011 :
b1011 Y
b1011 _
b100110 M
13
1&
#450000
0&
#455000
b11111110 $
b11111110 >
b11111110 c
b100 W
b100 ]
b100 ;
b100 X
b100 ^
b1011 :
b1011 Y
b1011 _
13
b100111 M
1&
#460000
0&
#465000
b11111110 $
b11111110 >
b11111110 c
b100 W
b100 ]
b100 ;
b100 X
b100 ^
b1011 :
b1011 Y
b1011 _
b101000 M
13
1&
#466000
b1 ?
b1 B
b1 I
b1111 =
b1111 A
b1111 H
b111110001 (
b111110001 +
b111110001 F
b1111 i
b1 h
b101001101010101010000100010000000110001001011010011000100110101 q
b11110010 p
b1111 l
b1 k
b1010 *
#470000
0&
#475000
b11111110 $
b11111110 >
b11111110 c
b10011110010 "
b10011110010 4
b10011110010 K
b1011 9
b1011 Z
b1011 `
b1 V
b100 W
b1110 ]
b100 ;
b100 X
b100 ^
b1 :
b1 Y
b1 _
b11110010 /
b11110010 D
b11110010 J
b11110010 P
13
b101001 M
1&
#480000
0&
#485000
b11111110 $
b11111110 >
b11111110 c
b100 W
b1 V
b1110 ]
b100 ;
b100 X
b100 ^
b1 :
b1 Y
b1 _
b1011 9
b1011 Z
b1011 `
b101010 M
13
1&
#490000
0&
#495000
b11111110 $
b11111110 >
b11111110 c
b100 W
b1 V
b1110 ]
b100 ;
b100 X
b100 ^
b1 :
b1 Y
b1 _
b1011 9
b1011 Z
b1011 `
13
b101011 M
1&
#500000
0&
#505000
b11111110 $
b11111110 >
b11111110 c
b100 W
b1 V
b1110 ]
b100 ;
b100 X
b100 ^
b1 :
b1 Y
b1 _
b1011 9
b1011 Z
b1011 `
b101100 M
13
1&
#506000
b0 ?
b0 B
b0 I
b101 =
b101 A
b101 H
b10 2
b10 @
b10 G
b1001010000 (
b1001010000 +
b1001010000 F
b10 j
b101 i
b0 h
b100110101010101010011000010000000110000001010100011010100100000 q
0n
b0 p
b10 r
b101 l
b0 k
b1011 *
#510000
0&
#515000
b1000000 !
b1000000 -
b1000000 f
b0 d
b11111110 $
b11111110 >
b11111110 c
b0 "
b0 4
b0 K
b0 W
b0 V
b0 ]
b0 ;
b0 X
b0 ^
b1010 :
b1010 Y
b1010 _
b1010 9
b1010 Z
b1010 `
b0 /
b0 D
b0 J
b0 P
03
b101101 M
b0 E
1&
#520000
0&
#525000
b101110 M
1&
#530000
0&
#535000
b101111 M
1&
#540000
0&
#545000
b110000 M
1&
#546000
b1 ?
b1 B
b1 I
b1 =
b1 A
b1 H
b1000010001 (
b1000010001 +
b1000010001 F
b1 i
b1 h
b100110101010101010011000010000000110001001010100011000100100000 q
b1 p
b1 l
b1 k
b1100 *
#550000
0&
#555000
b1111001 !
b1111001 -
b1111001 f
b1 d
b11111110 $
b11111110 >
b11111110 c
b1 "
b1 4
b1 K
b1 W
b1 ;
b1 X
b1 ^
b1 /
b1 D
b1 J
b1 P
b110001 M
b1 E
1&
#560000
0&
#565000
b110010 M
1&
#570000
0&
#575000
b110011 M
1&
#580000
0&
#585000
b110100 M
1&
#586000
b11 ?
b11 B
b11 I
b100 =
b100 A
b100 H
b1001000011 (
b1001000011 +
b1001000011 F
b100 i
b11 h
b100110101010101010011000010000000110011001010100011010000100000 q
b1100 p
b100 l
b11 k
b1101 *
#590000
0&
#595000
b100100 !
b100100 -
b100100 f
b10 d
b11111110 $
b11111110 >
b11111110 c
b1100 "
b1100 4
b1100 K
b1 :
b1 Y
b1 _
b1 V
b10 W
b10 ;
b10 X
b10 ^
b1100 /
b1100 D
b1100 J
b1100 P
b110101 M
b1100 E
1&
#600000
0&
#605000
b110110 M
1&
#610000
0&
#615000
b110111 M
1&
#620000
0&
#625000
b111000 M
1&
#626000
b111 ?
b111 B
b111 I
b1000 =
b1000 A
b1000 H
b1010000111 (
b1010000111 +
b1010000111 F
b1000 i
b111 h
b100110101010101010011000010000000110111001010100011100000100000 q
b111000 p
b1000 l
b111 k
b1110 *
#630000
0&
#635000
b10 !
b10 -
b10 f
b110 d
b11111110 $
b11111110 >
b11111110 c
b111000 "
b111000 4
b111000 K
b110 W
b101 V
b110 ;
b110 X
b110 ^
b101 :
b101 Y
b101 _
b111000 /
b111000 D
b111000 J
b111000 P
b111001 M
b111000 E
1&
#640000
0&
#645000
b111010 M
1&
#650000
0&
#655000
b111011 M
1&
#660000
0&
#665000
b111100 M
1&
#666000
b1111 ?
b1111 B
b1111 I
b1111 =
b1111 A
b1111 H
b1011111111 (
b1011111111 +
b1011111111 F
b1111 i
b1111 h
b101010101001100001000000011000100110101001010100011000100110101 q
b11100001 p
b1111 l
b1111 k
b1111 *
#670000
0&
#675000
b10010 !
b10010 -
b10010 f
b101 d
b11111110 $
b11111110 >
b11111110 c
b11100001 "
b11100001 4
b11100001 K
b10 9
b10 Z
b10 `
b10 U
b101 W
b10 V
b101 ;
b101 X
b101 ^
b10 :
b10 Y
b10 _
b11100001 /
b11100001 D
b11100001 J
b11100001 P
b111101 M
b11100001 E
1&
#680000
0&
#685000
b111110 M
1&
#690000
0&
#695000
b111111 M
1&
#700000
0&
#705000
b1000000 M
1&
#706000
b1010 ?
b1010 B
b1010 I
b10 =
b10 A
b10 H
b11 2
b11 @
b11 G
b1100101010 (
b1100101010 +
b1100101010 F
b11 j
b10 i
b1010 h
b100100101010110001000000011000100110000001011110011001000100000 q
b101 p
b11 r
b10 l
b1010 k
b10000 *
#710000
0&
#715000
b1000000 !
b1000000 -
b1000000 f
b0 d
b11111110 $
b11111110 >
b11111110 c
b101 "
b101 4
b101 K
b10 6
b10 \
b10 b
b101 W
b0 V
b0 U
b0 ;
b0 X
b0 ^
b101 :
b101 Y
b101 _
b1010 9
b1010 Z
b1010 `
b101 /
b101 D
b101 J
b101 P
15
b1000001 M
1&
#720000
0&
#725000
b11111110 $
b11111110 >
b11111110 c
b101 W
b0 ;
b0 X
b0 ^
b101 :
b101 Y
b101 _
b10 6
b10 \
b10 b
b1000010 M
15
1&
#730000
0&
#735000
b11111110 $
b11111110 >
b11111110 c
b101 W
b0 ;
b0 X
b0 ^
b101 :
b101 Y
b101 _
b10 6
b10 \
b10 b
15
b1000011 M
1&
#740000
0&
#745000
b11111110 $
b11111110 >
b11111110 c
b101 W
b0 ;
b0 X
b0 ^
b101 :
b101 Y
b101 _
b10 6
b10 \
b10 b
b1000100 M
15
1&
#746000
b111 ?
b111 B
b111 I
b1100100111 (
b1100100111 +
b1100100111 F
b111 h
b100100101010110001000000011011100101111001100100010000000100000 q
b11 p
b111 k
b10001 *
#750000
0&
#755000
b10010 !
b10010 -
b10010 f
b101 d
b11111110 $
b11111110 >
b11111110 c
b11 "
b11 4
b11 K
b11 W
b101 ;
b101 X
b101 ^
b11 :
b11 Y
b11 _
b10 6
b10 \
b10 b
b101 <
b101 C
b101 O
b11 /
b11 D
b11 J
b11 P
15
b1000101 M
1&
#760000
0&
#765000
b11111110 $
b11111110 >
b11111110 c
b11 W
b101 ;
b101 X
b101 ^
b11 :
b11 Y
b11 _
b10 6
b10 \
b10 b
b1000110 M
b101 <
b101 C
b101 O
15
1&
#770000
0&
#775000
b11111110 $
b11111110 >
b11111110 c
b11 W
b101 ;
b101 X
b101 ^
b11 :
b11 Y
b11 _
b10 6
b10 \
b10 b
b101 <
b101 C
b101 O
15
b1000111 M
1&
#780000
0&
#785000
b11111110 $
b11111110 >
b11111110 c
b11 W
b101 ;
b101 X
b101 ^
b11 :
b11 Y
b11 _
b10 6
b10 \
b10 b
b1001000 M
b101 <
b101 C
b101 O
15
1&
#786000
b1 ?
b1 B
b1 I
b11 =
b11 A
b11 H
b1100110001 (
b1100110001 +
b1100110001 F
b11 i
b1 h
b100100101010110001000000011000100101111001100110010000000100000 q
b0 p
b11 l
b1 k
b10010 *
#790000
0&
#795000
b110000 !
b110000 -
b110000 f
b11 d
b11111110 $
b11111110 >
b11111110 c
b0 "
b0 4
b0 K
b0 W
b11 ;
b11 X
b11 ^
b0 :
b0 Y
b0 _
b10 6
b10 \
b10 b
b0 /
b0 D
b0 J
b0 P
b11 <
b11 C
b11 O
15
b1001001 M
1&
#800000
0&
#805000
b11111110 $
b11111110 >
b11111110 c
b11 ;
b11 X
b11 ^
b0 :
b0 Y
b0 _
b10 6
b10 \
b10 b
b1001010 M
b11 <
b11 C
b11 O
15
1&
#810000
0&
#815000
b11111110 $
b11111110 >
b11111110 c
b11 ;
b11 X
b11 ^
b0 :
b0 Y
b0 _
b10 6
b10 \
b10 b
b11 <
b11 C
b11 O
15
b1001011 M
1&
#820000
0&
#825000
b11111110 $
b11111110 >
b11111110 c
b11 ;
b11 X
b11 ^
b0 :
b0 Y
b0 _
b10 6
b10 \
b10 b
b1001100 M
b11 <
b11 C
b11 O
15
1&
#826000
b0 ?
b0 B
b0 I
b101 =
b101 A
b101 H
b1101010000 (
b1101010000 +
b1101010000 F
b101 i
b0 h
b100100101010110001000000011000000101111001101010010000000100000 q
b101 l
b0 k
b10011 *
#830000
0&
#835000
b1000000 !
b1000000 -
b1000000 f
b0 d
b11111110 $
b11111110 >
b11111110 c
b0 ;
b0 X
b0 ^
b0 :
b0 Y
b0 _
b10 6
b10 \
b10 b
b0 <
b0 C
b0 O
15
b1001101 M
1&
#840000
0&
#845000
b11111110 $
b11111110 >
b11111110 c
b0 ;
b0 X
b0 ^
b0 :
b0 Y
b0 _
b10 6
b10 \
b10 b
b1001110 M
15
1&
#850000
0&
#855000
b11111110 $
b11111110 >
b11111110 c
b0 ;
b0 X
b0 ^
b0 :
b0 Y
b0 _
b10 6
b10 \
b10 b
15
b1001111 M
1&
#860000
0&
#865000
b11111110 $
b11111110 >
b11111110 c
b0 ;
b0 X
b0 ^
b0 :
b0 Y
b0 _
b10 6
b10 \
b10 b
b1010000 M
15
1&
#866000
b1111 ?
b1111 B
b1111 I
b1 =
b1 A
b1 H
b1100011111 (
b1100011111 +
b1100011111 F
b1 i
b1111 h
b100100101010110001000000011000100110101001011110011000100100000 q
b1111 p
b1 l
b1111 k
b10100 *
#870000
0&
#875000
b11111110 $
b11111110 >
b11111110 c
b1111 "
b1111 4
b1111 K
b1 9
b1 Z
b1 `
b101 W
b1 V
b0 ;
b0 X
b0 ^
b101 :
b101 Y
b101 _
b10 6
b10 \
b10 b
b1111 /
b1111 D
b1111 J
b1111 P
15
b1010001 M
1&
#880000
0&
#885000
b11111110 $
b11111110 >
b11111110 c
b101 W
b1 V
b0 ;
b0 X
b0 ^
b101 :
b101 Y
b101 _
b1 9
b1 Z
b1 `
b10 6
b10 \
b10 b
b1010010 M
15
1&
#890000
0&
#895000
b11111110 $
b11111110 >
b11111110 c
b101 W
b1 V
b0 ;
b0 X
b0 ^
b101 :
b101 Y
b101 _
b1 9
b1 Z
b1 `
b10 6
b10 \
b10 b
15
b1010011 M
1&
#900000
0&
#905000
b11111110 $
b11111110 >
b11111110 c
b101 W
b1 V
b0 ;
b0 X
b0 ^
b101 :
b101 Y
b101 _
b1 9
b1 Z
b1 `
b10 6
b10 \
b10 b
b1010100 M
15
1&
#906000
b1110 ?
b1110 B
b1110 I
b11 =
b11 A
b11 H
b1100111110 (
b1100111110 +
b1100111110 F
b11 i
b1110 h
b100100101010110001000000011000100110100001011110011001100100000 q
b100 p
b11 l
b1110 k
b10101 *
#910000
0&
#915000
b10 !
b10 -
b10 f
b110 d
b11111110 $
b11111110 >
b11111110 c
b100 "
b100 4
b100 K
b100 W
b0 V
b110 ;
b110 X
b110 ^
b100 :
b100 Y
b100 _
b1010 9
b1010 Z
b1010 `
b10 6
b10 \
b10 b
b110 <
b110 C
b110 O
b100 /
b100 D
b100 J
b100 P
15
b1010101 M
1&
#920000
0&
#925000
b11111110 $
b11111110 >
b11111110 c
b100 W
b110 ;
b110 X
b110 ^
b100 :
b100 Y
b100 _
b10 6
b10 \
b10 b
b1010110 M
b110 <
b110 C
b110 O
15
1&
#930000
0&
#935000
b11111110 $
b11111110 >
b11111110 c
b100 W
b110 ;
b110 X
b110 ^
b100 :
b100 Y
b100 _
b10 6
b10 \
b10 b
b110 <
b110 C
b110 O
15
b1010111 M
1&
#940000
0&
#945000
b11111110 $
b11111110 >
b11111110 c
b100 W
b110 ;
b110 X
b110 ^
b100 :
b100 Y
b100 _
b10 6
b10 \
b10 b
b1011000 M
b110 <
b110 C
b110 O
15
1&
#946000
b101 ?
b101 B
b101 I
b0 =
b0 A
b0 H
b1100000101 (
b1100000101 +
b1100000101 F
b0 i
b101 h
b100100101010110001000000011010100101111001100000010000000100000 q
1m
b0 p
b0 l
b101 k
b10110 *
#950000
0&
#955000
b101111 !
b101111 -
b101111 f
b1101 d
b11111110 $
b11111110 >
b11111110 c
b1000000000 "
b1000000000 4
b1000000000 K
b1100 9
b1100 Z
b1100 `
b0 W
b1101 ;
b1101 X
b1101 ^
b1101 :
b1101 Y
b1101 _
b0 6
b0 \
b0 b
b0 /
b0 D
b0 J
b0 P
17
b0 <
b0 C
b0 O
15
b1011001 M
1&
#960000
0&
#965000
b11111110 $
b11111110 >
b11111110 c
b1101 ;
b1101 X
b1101 ^
b1101 :
b1101 Y
b1101 _
b1100 9
b1100 Z
b1100 `
b1011010 M
15
17
1&
#970000
0&
#975000
b11111110 $
b11111110 >
b11111110 c
b1101 ;
b1101 X
b1101 ^
b1101 :
b1101 Y
b1101 _
b1100 9
b1100 Z
b1100 `
15
17
b1011011 M
1&
#980000
0&
#985000
b11111110 $
b11111110 >
b11111110 c
b1101 ;
b1101 X
b1101 ^
b1101 :
b1101 Y
b1101 _
b1100 9
b1100 Z
b1100 `
b1011100 M
15
17
1&
#986000
b0 ?
b0 B
b0 I
b1100000000 (
b1100000000 +
b1100000000 F
b0 h
b100100101010110001000000011000000101111001100000010000000100000 q
b0 k
b10111 *
#990000
0&
#995000
b11111110 $
b11111110 >
b11111110 c
b1101 ;
b1101 X
b1101 ^
b1101 :
b1101 Y
b1101 _
b1100 9
b1100 Z
b1100 `
15
17
b1011101 M
1&
#1000000
0&
#1005000
b11111110 $
b11111110 >
b11111110 c
b1101 ;
b1101 X
b1101 ^
b1101 :
b1101 Y
b1101 _
b1100 9
b1100 Z
b1100 `
b1011110 M
15
17
1&
#1010000
0&
#1015000
b11111110 $
b11111110 >
b11111110 c
b1101 ;
b1101 X
b1101 ^
b1101 :
b1101 Y
b1101 _
b1100 9
b1100 Z
b1100 `
15
17
b1011111 M
1&
#1020000
0&
#1025000
b11111110 $
b11111110 >
b11111110 c
b1101 ;
b1101 X
b1101 ^
b1101 :
b1101 Y
b1101 _
b1100 9
b1100 Z
b1100 `
b1100000 M
15
17
1&
#1026000
b1111 ?
b1111 B
b1111 I
b1111 =
b1111 A
b1111 H
b1111111111111111 (
b1111111111111111 +
b1111111111111111 F
b11000 *
#1030000
0&
#1035000
b1000000 !
b1000000 -
b1000000 f
b0 d
b11111110 $
b11111110 >
b11111110 c
b1 "
b1 4
b1 K
b10 6
b10 \
b10 b
b1 W
b0 ;
b0 X
b0 ^
b1 :
b1 Y
b1 _
b1010 9
b1010 Z
b1010 `
b1 /
b1 D
b1 J
b1 P
15
07
b1100001 M
1&
#1040000
0&
#1045000
b11111110 $
b11111110 >
b11111110 c
b1 W
b0 ;
b0 X
b0 ^
b1 :
b1 Y
b1 _
b10 6
b10 \
b10 b
b1100010 M
15
1&
#1050000
0&
#1055000
0,
b0 /
b0 D
b0 J
b0 P
b11111110 $
b11111110 >
b11111110 c
b0 W
b0 ;
b0 X
b0 ^
b1010 :
b1010 Y
b1010 _
b0 6
b0 \
b0 b
b0 "
b0 4
b0 K
05
b0 M
1.
1N
1'
1&
#1060000
0&
#1065000
1&
#1070000
0&
#1075000
1&
#1080000
0&
#1085000
1&
#1086000
0'
b11001 *
#1090000
0&
#1095000
0N
1&
#1100000
0&
#1105000
0.
1&
#1110000
0&
#1115000
b11111110 $
b11111110 >
b11111110 c
b10 6
b10 \
b10 b
b1 :
b1 Y
b1 _
b1 W
b0 ;
b0 X
b0 ^
b1 "
b1 4
b1 K
b1 M
b1 /
b1 D
b1 J
b1 P
15
1,
1&
#1120000
0&
#1125000
b11111110 $
b11111110 >
b11111110 c
b1 W
b0 ;
b0 X
b0 ^
b1 :
b1 Y
b1 _
b10 6
b10 \
b10 b
15
b10 M
1&
#1130000
0&
#1135000
b11111110 $
b11111110 >
b11111110 c
b1 W
b0 ;
b0 X
b0 ^
b1 :
b1 Y
b1 _
b10 6
b10 \
b10 b
b11 M
15
1&
#1140000
0&
#1145000
b11111110 $
b11111110 >
b11111110 c
b1 W
b0 ;
b0 X
b0 ^
b1 :
b1 Y
b1 _
b10 6
b10 \
b10 b
15
b100 M
1&
#1150000
0&
#1155000
b11111110 $
b11111110 >
b11111110 c
b1 W
b0 ;
b0 X
b0 ^
b1 :
b1 Y
b1 _
b10 6
b10 \
b10 b
b101 M
15
1&
#1160000
0&
#1165000
b11111110 $
b11111110 >
b11111110 c
b1 W
b0 ;
b0 X
b0 ^
b1 :
b1 Y
b1 _
b10 6
b10 \
b10 b
15
b110 M
1&
#1170000
0&
#1175000
b11111110 $
b11111110 >
b11111110 c
b1 W
b0 ;
b0 X
b0 ^
b1 :
b1 Y
b1 _
b10 6
b10 \
b10 b
b111 M
15
1&
#1180000
0&
#1185000
b11111110 $
b11111110 >
b11111110 c
b1 W
b0 ;
b0 X
b0 ^
b1 :
b1 Y
b1 _
b10 6
b10 \
b10 b
15
b1000 M
1&
